rethinking2020 - 5 Multivariate Linear Models
…
We conclude that the marriage rate seems to have little impact on the divorce rate once we remove the effect of the median age of marriage.

5.1.5.2 Posterior prediction plots

The textbook mentions posterior predictions. So we use add_epred_draws() to get the expected predictions.

epred05_03 <- dataWaffle |>
  add_epred_draws(fit05_03, ndraws = 500) |>
  mean_qi()
epred05_03

# A tibble: 50 × 23
   Location      Loc   Population MedianAgeMarriage Marriage Marriage.SE Divorce
   <fct>         <fct>      <dbl>             <dbl>    <dbl>       <dbl>   <dbl>
 1 Alabama       AL          4.78              25.3     20.2        1.27    12.7
 2 Alaska        AK          0.71              25.2     26          2.93    12.5
 3 Arizona       AZ          6.33              25.8     20.3        0.98    10.8
 4 Arkansas      AR          2.92              24.3     26.4        1.7     13.5
 5 California    CA         37.2               26.8     19.1        0.39     8  
 6 Colorado      CO          5.03              25.7     23.5        1.24    11.6
 7 Connecticut   CT          3.57              27.6     17.1        1.06     6.7
 8 Delaware      DE          0.9               26.6     23.1        2.89     8.9
 9 District of … DC          0.6               29.7     17.7        2.53     6.3
10 Florida       FL         18.8               26.4     17          0.58     8.5
# ℹ 40 more rows
# ℹ 16 more variables: Divorce.SE <dbl>, WaffleHouses <int>, South <int>,
#   Slaves1860 <int>, Population1860 <int>, PropSlaves1860 <dbl>, A <dbl[,1]>,
#   M <dbl[,1]>, D <dbl[,1]>, .row <int>, .epred <dbl>, .lower <dbl>,
#   .upper <dbl>, .width <dbl>, .point <chr>, .interval <chr>
…
