rethinking2020 - 11 Counting and Classification
…
All Pareto k estimates are good (k < 0.5).
See help('pareto-k-diagnostic') for details.

post11_14 <- data.frame(
  family_income = seq_range(dataCareer$family_income, n = 50, pretty = TRUE)) |>
  add_epred_draws(fit11_14) |>
  mean_qi() |>
  identity()
post11_14

# A tibble: 153 × 9
   family_income  .row .category .epred .lower .upper .width .point .interval
           <dbl> <int> <fct>      <dbl>  <dbl>  <dbl>  <dbl> <chr>  <chr>    
 1          0        1 1          0.171  0.109  0.249   0.95 mean   qi       
 2          0        1 2          0.223  0.159  0.298   0.95 mean   qi       
 3          0        1 3          0.606  0.519  0.689   0.95 mean   qi       
 4          0.02     2 1          0.165  0.106  0.237   0.95 mean   qi       
 5          0.02     2 2          0.221  0.159  0.292   0.95 mean   qi       
 6          0.02     2 3          0.614  0.531  0.694   0.95 mean   qi       
 7          0.04     3 1          0.159  0.104  0.226   0.95 mean   qi       
 8          0.04     3 2          0.218  0.159  0.287   0.95 mean   qi       
 9          0.04     3 3          0.623  0.543  0.700   0.95 mean   qi       
10          0.06     4 1          0.153  0.101  0.216   0.95 mean   qi       
# … with 143 more rows
…
