rethinking2020 - 13 Multilevel Models
…
run time of 70 secs., use the cache.: 0.14 sec elapsed

fit13_01 |>
  spread_draws(`b_.+`, regex = TRUE) |>
  summarize_draws("mean", "sd", ~quantile(.x, probs = c(0.055, 0.945)),
                  default_convergence_measures()) |>
  mutate(across(.cols = where(is.numeric), .fns = round, digits = 2),
         across(.cols = starts_with("ess"), .fns = as.integer))

# A tibble: 48 × 8
   variable  mean    sd `5.5%` `94.5%`  rhat ess_bulk ess_tail
   <chr>    <dbl> <dbl>  <dbl>   <dbl> <dbl>    <int>    <int>
 1 b_tank1   1.73  0.77   0.53    3.09  1        1512      824
 2 b_tank2   2.38  0.93   1       4.01  1        1403      657
 3 b_tank3   0.74  0.63  -0.24    1.78  1.01      991      716
 4 b_tank4   2.44  0.91   1.08    3.98  1         875      683
 5 b_tank5   1.69  0.79   0.55    2.99  1        1636      731
 6 b_tank6   1.71  0.77   0.54    2.95  1.01     1484      675
 7 b_tank7   2.4   0.9    1.08    3.97  1        1230      742
 8 b_tank8   1.71  0.78   0.56    3.04  1        1254      718
 9 b_tank9  -0.36  0.63  -1.39    0.61  1        1310      610
10 b_tank10  1.73  0.76   0.57    2.97  1.01     1222      761
# … with 38 more rows
…
Warning: 
23 (47.9%) p_waic estimates greater than 0.4. We recommend trying loo instead.

tictoc::toc()

run time of 60 secs., use the cache.: 57.89 sec elapsed

fit13_02 |>
  spread_draws(`b_.+`, `sd_.+`,`r_.+`, regex = TRUE) |>
  summarize_draws("mean", "sd", ~quantile(.x, probs = c(0.055, 0.945)),
                  default_convergence_measures()) |>
  mutate(across(.cols = where(is.numeric), .fns = round, digits = 2),
         across(.cols = starts_with("ess"), .fns = as.integer))

# A tibble: 50 × 8
   variable             mean    sd `5.5%` `94.5%`  rhat ess_bulk ess_tail
   <chr>               <dbl> <dbl>  <dbl>   <dbl> <dbl>    <int>    <int>
 1 b_Intercept          1.34  0.27   0.92    1.76  1         187      357
 2 sd_tank__Intercept   1.62  0.21   1.3     1.98  1.01      401      678
 3 r_tank[1,Intercept]  0.76  0.85  -0.47    2.18  1        1390      796
 4 r_tank[2,Intercept]  1.71  1.12   0.1     3.59  1        1566      665
 5 r_tank[3,Intercept] -0.32  0.72  -1.38    0.88  1.01      999      472
 6 r_tank[4,Intercept]  1.68  1.03   0.17    3.46  1        1007      786
 7 r_tank[5,Intercept]  0.79  0.9   -0.51    2.31  1        1224      527
 8 r_tank[6,Intercept]  0.79  0.85  -0.49    2.26  1        1374      646
 9 r_tank[7,Intercept]  1.71  1.1    0.11    3.6   1        1499      771
10 r_tank[8,Intercept]  0.8   0.86  -0.43    2.19  1.01     1234      431
# … with 40 more rows
…
This time we don’t have a list of intercepts as in fit13_02. We have a description of their distribution \(\alpha_j \sim \mathcal{N}(\bar{\alpha}, \sigma)\) where \(Intercept = \bar{\alpha}\) and \(sd(Intercept) = \sigma\).

The task of getting the posterior is easier with tidybayes and posterior than the way McElreath and Kurtz do it.

# IMPORTANT: We use the median value, not the mean because of skewed
#            binomial dist. You don't always have to use the mean!
epred13_02 <- dataFrogs |>
  add_epred_draws(fit13_02, ndraws = 500) |>
  mutate(propsurv.epred = .epred / density) |>
  median_qi(.width = 0.89)
epred13_02

# A tibble: 48 × 16
# Groups:   density, pred, size, surv, propsurv, tank [48]
   density pred  size   surv propsurv tank   .row .epred .epre…¹ .epre…² props…³
     <int> <fct> <fct> <int>    <dbl> <fct> <int>  <dbl>   <dbl>   <dbl>   <dbl>
 1      10 no    big       7      0.7 3         3   7.30    4.98    9.09   0.730
 2      10 no    big       9      0.9 1         1   8.86    7.23    9.69   0.886
 3      10 no    big      10      1   2         2   9.50    8.13    9.93   0.950
 4      10 no    big      10      1   4         4   9.50    8.38    9.92   0.950
 5      10 no    small     9      0.9 5         5   8.88    7.04    9.75   0.888
 6      10 no    small     9      0.9 6         6   8.86    7.04    9.73   0.886
 7      10 no    small     9      0.9 8         8   8.96    7.08    9.71   0.896
 8      10 no    small    10      1   7         7   9.49    8.15    9.92   0.949
 9      10 pred  big       4      0.4 9         9   4.50    2.37    6.88   0.450
10      10 pred  big       6      0.6 12       12   6.32    4.25    8.30   0.632
# … with 38 more rows, 5 more variables: propsurv.epred.lower <dbl>,
#   propsurv.epred.upper <dbl>, .width <dbl>, .point <chr>, .interval <chr>,
#   and abbreviated variable names ¹​.epred.lower, ²​.epred.upper,
#   ³​propsurv.epred
…
run time of 80 secs., use the cache.: 0.25 sec elapsed

and we have our point summaries and interval as follows

fit13_03 |>
  spread_draws(`b_.+`, `sd_.+`,`r_.+`, regex = TRUE) |>
  summarize_draws("mean", "sd", ~quantile(.x, probs = c(0.055, 0.945)),
                  default_convergence_measures()) |>
  mutate(across(.cols = where(is.numeric), .fns = round, digits = 2),
         across(.cols = starts_with("ess"), .fns = as.integer))

# A tibble: 62 × 8
   variable             mean    sd `5.5%` `94.5%`  rhat ess_bulk ess_tail
   <chr>               <dbl> <dbl>  <dbl>   <dbl> <dbl>    <int>    <int>
 1 b_Intercept          1.47  0.22   1.12    1.83  1.01      264      395
 2 sd_pond__Intercept   1.49  0.2    1.19    1.84  1.01      440      652
 3 r_pond[1,Intercept]  0.09  0.96  -1.33    1.71  1        1181      660
 4 r_pond[2,Intercept]  0.07  0.95  -1.33    1.61  1.01     1668      648
 5 r_pond[3,Intercept] -0.69  0.86  -2.03    0.7   1        1817      676
 6 r_pond[4,Intercept]  1.15  1.2   -0.61    3.12  1        1921      647
 7 r_pond[5,Intercept]  1.14  1.13  -0.52    3.14  1        2019      687
 8 r_pond[6,Intercept]  0.11  0.98  -1.34    1.79  1        1423      721
 9 r_pond[7,Intercept]  0.04  0.92  -1.34    1.62  1        1801      797
10 r_pond[8,Intercept]  0.12  1.04  -1.44    1.81  1        1853      790
# … with 52 more rows
…
Compiling Stan program...

Start sampling

tictoc::toc()

run time of 80 secs., use the cache.: 65.85 sec elapsed

summarize_draws(fit13_04, "mean", "sd", ~quantile(.x, probs = c(0.055, 0.945)),
                default_convergence_measures()) |>
  mutate(across(.cols = where(is.numeric), .fns = round, digits = 2),
         across(.cols = starts_with("ess"), .fns = as.integer))

# A tibble: 22 × 8
   variable                 mean    sd `5.5%` `94.5%`  rhat ess_bulk ess_tail
   <chr>                   <dbl> <dbl>  <dbl>   <dbl> <dbl>    <int>    <int>
 1 b_a_Intercept            0.87  1.01  -0.71    2.43  1         244      347
 2 b_b_treatmentRDN        -0.18  0.53  -1.02    0.7   1.01      439      548
 3 b_b_treatmentLDN         0.44  0.53  -0.44    1.31  1.01      473      521
 4 b_b_treatmentRDP        -0.56  0.54  -1.39    0.31  1.01      462      563
 5 b_b_treatmentLDP         0.31  0.53  -0.56    1.14  1.01      472      418
 6 sd_actor__a_Intercept    2.07  0.59   1.27    3.15  1.01      412      651
 7 sd_block__g_Intercept    0.22  0.17   0.02    0.57  1.01      315      562
 8 r_actor__a[1,Intercept] -1.23  0.91  -2.74    0.2   1         236      360
 9 r_actor__a[2,Intercept]  3.94  1.36   2.13    6.39  1         514      707
10 r_actor__a[3,Intercept] -1.53  0.92  -3.07   -0.12  1         247      356
# … with 12 more rows
…
